<?xml version="1.0" encoding="UTF-8" standalone="no"?>
<svg
   xmlns:dc="http://purl.org/dc/elements/1.1/"
   xmlns:cc="http://creativecommons.org/ns#"
   xmlns:rdf="http://www.w3.org/1999/02/22-rdf-syntax-ns#"
   xmlns:svg="http://www.w3.org/2000/svg"
   xmlns="http://www.w3.org/2000/svg"
   xmlns:sodipodi="http://sodipodi.sourceforge.net/DTD/sodipodi-0.dtd"
   xmlns:inkscape="http://www.inkscape.org/namespaces/inkscape"
   width="110.20137mm"
   height="110.20138mm"
   viewBox="0 0 110.20137 110.20137"
   version="1.1"
   id="svg8"
   sodipodi:docname="Logo.svg"
   inkscape:version="1.0.2 (e86c870879, 2021-01-15, custom)"
   inkscape:export-filename="/home/tendsin/Pictures/TendsinLogo/Logo512_Border.png"
   inkscape:export-xdpi="118.01"
   inkscape:export-ydpi="118.01">
  <defs
     id="defs2">
    <inkscape:path-effect
       effect="spiro"
       id="path-effect1191"
       is_visible="true"
       lpeversion="1" />
    <inkscape:path-effect
       effect="spiro"
       id="path-effect874"
       is_visible="true"
       lpeversion="1" />
    <inkscape:path-effect
       effect="spiro"
       id="path-effect866"
       is_visible="true"
       lpeversion="1" />
  </defs>
  <sodipodi:namedview
     id="base"
     pagecolor="#ffffff"
     bordercolor="#666666"
     borderopacity="1.0"
     inkscape:pageopacity="0.0"
     inkscape:pageshadow="2"
     inkscape:zoom="2.1890692"
     inkscape:cx="223.67057"
     inkscape:cy="244.75248"
     inkscape:document-units="mm"
     inkscape:current-layer="layer2"
     inkscape:document-rotation="0"
     showgrid="false"
     inkscape:snap-bbox="true"
     inkscape:snap-grids="true"
     inkscape:window-width="3440"
     inkscape:window-height="1371"
     inkscape:window-x="0"
     inkscape:window-y="32"
     inkscape:window-maximized="1"
     inkscape:bbox-paths="true"
     inkscape:bbox-nodes="true"
     inkscape:snap-bbox-edge-midpoints="true"
     inkscape:snap-bbox-midpoints="true"
     inkscape:snap-object-midpoints="true"
     inkscape:snap-midpoints="true"
     inkscape:snap-smooth-nodes="true"
     inkscape:snap-intersection-paths="true"
     inkscape:object-paths="true"
     inkscape:snap-center="true"
     inkscape:snap-text-baseline="true"
     inkscape:snap-page="true"
     lock-margins="true"
     fit-margin-top="5"
     fit-margin-left="5"
     fit-margin-right="5"
     fit-margin-bottom="5" />
  <metadata
     id="metadata5">
    <rdf:RDF>
      <cc:Work
         rdf:about="">
        <dc:format>image/svg+xml</dc:format>
        <dc:type
           rdf:resource="http://purl.org/dc/dcmitype/StillImage" />
        <dc:title />
      </cc:Work>
    </rdf:RDF>
  </metadata>
  <g
     inkscape:groupmode="layer"
     id="layer3"
     inkscape:label="Top"
     transform="translate(5,5)">
    <g
       inkscape:label="Lower"
       inkscape:groupmode="layer"
       id="layer1"
       style="display:inline">
      <a
         id="a861"
         style="stroke:none;stroke-width:0.4;stroke-miterlimit:4;stroke-dasharray:none"
         transform="translate(-61.047147,-29.593182)">
        <path
           id="path12"
           style="fill:#1d2021;fill-opacity:1;stroke:#1d2021;stroke-width:0.2;stroke-miterlimit:4;stroke-dasharray:none;stroke-opacity:1"
           d="m 99.880864,29.71227 -38.733717,42.733431 1e-6,7.247483 c 0,16.364792 7.977145,31.425636 20.921383,40.677666 3.051857,2.18134 6.379821,4.03979 9.944444,5.51631 18.683725,7.73905 40.189615,3.46126 54.489515,-10.83864 14.2999,-14.2999 18.57769,-35.805788 10.83864,-54.489507 -7.73905,-18.683721 -25.97087,-30.86583 -46.19398,-30.865831 z"
           sodipodi:nodetypes="cccsssscc" />
      </a>
    </g>
    <g
       inkscape:groupmode="layer"
       id="layer2"
       inkscape:label="Upper"
       style="display:inline">
      <path
         id="path12-4"
         style="opacity:1;fill:#abc837;fill-opacity:1;stroke:#1d2021;stroke-width:0.2;stroke-linecap:butt;stroke-linejoin:miter;stroke-miterlimit:4.6;stroke-dasharray:none;stroke-opacity:1;paint-order:normal"
         d="m 30.965823,96.293987 c 18.68373,7.739053 40.18962,3.46126 54.48952,-10.83864 14.2999,-14.2999 18.577687,-35.80579 10.83864,-54.48951 C 88.554933,12.282117 70.323113,0.100005 50.100003,0.100006 l -0.10405,25.064921 -21.5929,0.01 v 24.91088 l 35.89147,0.0145 c 0,3.58889 -0.0584,14.794 -0.20362,17.32452 -0.46915,8.17427 -1.42348,11.10456 -3.29862,14.80725 -7.50117,14.95616 -26.65933,15.754 -39.7709,8.54575 3.051856,2.181196 6.37982,4.03964 9.94444,5.51616 z"
         sodipodi:nodetypes="ssscccccsccs" />
    </g>
  </g>
</svg>
