<?xml version="1.0" encoding="UTF-8" standalone="no"?>
<!-- Created with Inkscape (http://www.inkscape.org/) -->

<svg
   width="1699.12"
   height="1165.2056"
   viewBox="0 0 1699.12 1165.2056"
   version="1.1"
   id="svg5"
   inkscape:version="1.1.2 (0a00cf5339, 2022-02-04, custom)"
   sodipodi:docname="graphBuilding.svg"
   xmlns:inkscape="http://www.inkscape.org/namespaces/inkscape"
   xmlns:sodipodi="http://sodipodi.sourceforge.net/DTD/sodipodi-0.dtd"
   xmlns="http://www.w3.org/2000/svg"
   xmlns:svg="http://www.w3.org/2000/svg">
  <sodipodi:namedview
     id="namedview7"
     pagecolor="#505050"
     bordercolor="#eeeeee"
     borderopacity="1"
     inkscape:pageshadow="0"
     inkscape:pageopacity="0"
     inkscape:pagecheckerboard="0"
     inkscape:document-units="px"
     showgrid="true"
     inkscape:snap-bbox="true"
     inkscape:snap-bbox-midpoints="true"
     inkscape:zoom="0.92660451"
     inkscape:cx="1203.3181"
     inkscape:cy="1106.1893"
     inkscape:window-width="2436"
     inkscape:window-height="1331"
     inkscape:window-x="26"
     inkscape:window-y="23"
     inkscape:window-maximized="0"
     inkscape:current-layer="layer1"
     fit-margin-top="0"
     fit-margin-left="0"
     fit-margin-right="0"
     fit-margin-bottom="0"
     inkscape:snap-bbox-edge-midpoints="true"
     inkscape:bbox-nodes="true"
     inkscape:bbox-paths="true">
    <inkscape:grid
       type="xygrid"
       id="grid13915"
       originx="98.986667"
       originy="-98.677178" />
  </sodipodi:namedview>
  <defs
     id="defs2">
    <marker
       style="overflow:visible"
       id="Arrow1Lend"
       refX="0"
       refY="0"
       orient="auto"
       inkscape:stockid="Arrow1Lend"
       inkscape:isstock="true">
      <path
         transform="matrix(-0.8,0,0,-0.8,-10,0)"
         style="fill:context-stroke;fill-rule:evenodd;stroke:context-stroke;stroke-width:1pt"
         d="M 0,0 5,-5 -12.5,0 5,5 Z"
         id="path100187" />
    </marker>
    <rect
       x="820"
       y="150"
       width="250"
       height="150"
       id="rect176403" />
    <rect
       x="270"
       y="315"
       width="364.30579"
       height="73.313301"
       id="rect46694" />
    <rect
       x="115"
       y="105"
       width="50"
       height="360"
       id="rect23874" />
    <rect
       x="115.96228"
       y="107.36866"
       width="47.970001"
       height="301.50613"
       id="rect9911" />
    <rect
       x="270"
       y="315"
       width="364.30579"
       height="73.313301"
       id="rect46694-7" />
    <rect
       x="820"
       y="150"
       width="250"
       height="150"
       id="rect176403-0" />
    <rect
       x="820"
       y="150"
       width="250"
       height="150"
       id="rect176403-0-0" />
    <rect
       x="820"
       y="150"
       width="250"
       height="150"
       id="rect176403-0-3" />
    <rect
       x="820"
       y="150"
       width="250"
       height="150"
       id="rect176403-0-0-0" />
  </defs>
  <g
     inkscape:label="Layer 1"
     inkscape:groupmode="layer"
     id="layer1"
     transform="translate(98.986658,-98.677165)">
    <rect
       style="fill:#1d2021;fill-opacity:1;stroke:#abc837;stroke-width:2.64567;stroke-linecap:round;stroke-linejoin:round;stroke-opacity:1"
       id="rect13809"
       width="320"
       height="100"
       x="260"
       y="100" />
    <text
       xml:space="preserve"
       style="font-size:26.6667px;line-height:1.25;font-family:sans-serif"
       x="324.69324"
       y="156.97334"
       id="text146930"><tspan
         sodipodi:role="line"
         id="tspan146928"
         x="324.69324"
         y="156.97334"
         style="fill:#e0e0e0;fill-opacity:1">SegmentBuilder</tspan></text>
    <rect
       style="fill:#1d2021;fill-opacity:1;stroke:#abc837;stroke-width:2.64567;stroke-linecap:round;stroke-linejoin:round;stroke-opacity:1"
       id="rect13809-1"
       width="320"
       height="100"
       x="260"
       y="380" />
    <text
       xml:space="preserve"
       style="font-size:26.6667px;line-height:1.25;font-family:sans-serif"
       x="324.69324"
       y="436.97333"
       id="text146930-4"><tspan
         sodipodi:role="line"
         id="tspan146928-9"
         x="324.69324"
         y="436.97333"
         style="fill:#e0e0e0;fill-opacity:1">SegmentBuilder</tspan></text>
    <rect
       style="fill:#1d2021;fill-opacity:1;stroke:#abc837;stroke-width:2.64567;stroke-linecap:round;stroke-linejoin:round;stroke-opacity:1"
       id="rect13809-1-5"
       width="320"
       height="100"
       x="527.62665"
       y="617.21332" />
    <text
       xml:space="preserve"
       style="font-size:26.6667px;line-height:1.25;font-family:sans-serif"
       x="657.65326"
       y="676.62665"
       id="text146930-4-2"><tspan
         sodipodi:role="line"
         id="tspan146928-9-5"
         x="657.65326"
         y="676.62665"
         style="fill:#e0e0e0;fill-opacity:1">Pass</tspan></text>
    <text
       xml:space="preserve"
       style="font-size:26.6667px;line-height:1.25;font-family:sans-serif;fill:#6c6c6c;fill-opacity:1"
       x="-99.999985"
       y="120"
       id="text240413"><tspan
         sodipodi:role="line"
         id="tspan240411"
         x="-99.999985"
         y="120"
         style="fill:#6c6c6c;fill-opacity:1">Queue 0</tspan></text>
    <text
       xml:space="preserve"
       style="font-size:26.6667px;line-height:1.25;font-family:sans-serif;fill:#6c6c6c;fill-opacity:1"
       x="871.08282"
       y="657.35999"
       id="text240413-4"><tspan
         sodipodi:role="line"
         id="tspan240411-7"
         x="871.08282"
         y="657.35999"
         style="fill:#6c6c6c;fill-opacity:1">Inserting pass that </tspan><tspan
         sodipodi:role="line"
         x="871.08282"
         y="690.69336"
         style="fill:#6c6c6c;fill-opacity:1"
         id="tspan79422">needs Image 3 on Queue 0</tspan></text>
    <text
       xml:space="preserve"
       style="font-size:26.6667px;line-height:1.25;font-family:sans-serif;fill:#6c6c6c;fill-opacity:1"
       x="-98.973366"
       y="401.09335"
       id="text242925"><tspan
         sodipodi:role="line"
         id="tspan242923"
         x="-98.973366"
         y="401.09335"
         style="fill:#6c6c6c;fill-opacity:1">Queue 1</tspan></text>
    <path
       style="fill:none;stroke:#6c6c6c;stroke-width:1px;stroke-linecap:butt;stroke-linejoin:miter;stroke-opacity:1"
       d="m 260.00001,150 h -95"
       id="path245418"
       sodipodi:nodetypes="cc" />
    <path
       style="fill:none;stroke:#6c6c6c;stroke-width:1px;stroke-linecap:butt;stroke-linejoin:miter;stroke-opacity:1"
       d="m 260.00001,430 h -95"
       id="path245420"
       sodipodi:nodetypes="cc" />
    <g
       id="g284753"
       transform="translate(38.700019,280.5)">
      <text
         xml:space="preserve"
         id="text176401"
         style="font-size:26.6667px;line-height:1.25;font-family:sans-serif;white-space:pre;shape-inside:url(#rect176403-0);fill:#6c6c6c;fill-opacity:1;stroke:#6c6c6c;stroke-opacity:1"
         transform="translate(-778.91996,-75.353305)"><tspan
           x="820"
           y="229.70664"
           id="tspan141057"><tspan
             style="font-size:93.3333px;-inkscape-font-specification:'sans-serif, Normal'"
             id="tspan141055">...</tspan></tspan></text>
    </g>
    <g
       id="g284753-3"
       transform="translate(38.700019,-0.1466683)">
      <text
         xml:space="preserve"
         id="text176401-6"
         style="font-size:26.6667px;line-height:1.25;font-family:sans-serif;white-space:pre;shape-inside:url(#rect176403-0-0);fill:#6c6c6c;fill-opacity:1;stroke:#6c6c6c;stroke-opacity:1"
         transform="translate(-778.91996,-75.353305)"><tspan
           x="820"
           y="229.70664"
           id="tspan141061"><tspan
             style="font-size:93.3333px;-inkscape-font-specification:'sans-serif, Normal'"
             id="tspan141059">...</tspan></tspan></text>
    </g>
    <text
       xml:space="preserve"
       style="font-size:26.6667px;line-height:1.25;font-family:sans-serif"
       x="1318.72"
       y="126.97336"
       id="text22556"><tspan
         sodipodi:role="line"
         id="tspan22554"
         x="1318.72"
         y="126.97336"
         style="fill:#6c6c6c;fill-opacity:1">Currently owns</tspan></text>
    <text
       xml:space="preserve"
       style="font-size:26.6667px;line-height:1.25;font-family:sans-serif"
       x="127.44012"
       y="-1561.0934"
       id="text22556-9"
       transform="rotate(90)"><tspan
         sodipodi:role="line"
         id="tspan22554-0"
         x="127.44012"
         y="-1561.0934"
         style="font-style:normal;font-variant:normal;font-weight:normal;font-stretch:normal;font-size:53.3333px;font-family:sans-serif;-inkscape-font-specification:'sans-serif, Normal';font-variant-ligatures:normal;font-variant-caps:normal;font-variant-numeric:normal;font-variant-east-asian:normal;fill:#6c6c6c;fill-opacity:1">Before insert</tspan></text>
    <text
       xml:space="preserve"
       style="font-size:26.6667px;line-height:1.25;font-family:sans-serif"
       x="591.3067"
       y="-1561.1733"
       id="text22556-9-7"
       transform="rotate(90)"><tspan
         sodipodi:role="line"
         id="tspan22554-0-7"
         x="591.3067"
         y="-1561.1733"
         style="font-style:normal;font-variant:normal;font-weight:normal;font-stretch:normal;font-size:53.3333px;font-family:sans-serif;-inkscape-font-specification:'sans-serif, Normal';font-variant-ligatures:normal;font-variant-caps:normal;font-variant-numeric:normal;font-variant-east-asian:normal;fill:#6c6c6c;fill-opacity:1">Insert</tspan></text>
    <text
       xml:space="preserve"
       style="font-size:26.6667px;line-height:1.25;font-family:sans-serif"
       x="951.49347"
       y="-1561.0934"
       id="text22556-9-7-1"
       transform="rotate(90)"><tspan
         sodipodi:role="line"
         id="tspan22554-0-7-1"
         x="951.49347"
         y="-1561.0934"
         style="font-style:normal;font-variant:normal;font-weight:normal;font-stretch:normal;font-size:53.3333px;font-family:sans-serif;-inkscape-font-specification:'sans-serif, Normal';font-variant-ligatures:normal;font-variant-caps:normal;font-variant-numeric:normal;font-variant-east-asian:normal;fill:#6c6c6c;fill-opacity:1">After insert</tspan></text>
    <text
       xml:space="preserve"
       style="font-size:26.6667px;line-height:1.25;font-family:sans-serif"
       x="1317.3334"
       y="166.65337"
       id="text57446"><tspan
         sodipodi:role="line"
         id="tspan57444"
         x="1317.3334"
         y="166.65337"
         style="fill:#6c6c6c;fill-opacity:1">Image 0</tspan></text>
    <text
       xml:space="preserve"
       style="font-size:26.6667px;line-height:1.25;font-family:sans-serif"
       x="1317.3334"
       y="196.65335"
       id="text57446-6"><tspan
         sodipodi:role="line"
         id="tspan57444-5"
         x="1317.3334"
         y="196.65335"
         style="fill:#6c6c6c;fill-opacity:1">Image 1</tspan></text>
    <text
       xml:space="preserve"
       style="font-size:26.6667px;line-height:1.25;font-family:sans-serif"
       x="1317.3334"
       y="441.39999"
       id="text57446-69"><tspan
         sodipodi:role="line"
         id="tspan57444-3"
         x="1317.3334"
         y="441.39999"
         style="fill:#6c6c6c;fill-opacity:1">Image 2</tspan></text>
    <text
       xml:space="preserve"
       style="font-size:26.6667px;line-height:1.25;font-family:sans-serif"
       x="1317.3334"
       y="471.65335"
       id="text57446-6-7"><tspan
         sodipodi:role="line"
         id="tspan57444-5-4"
         x="1317.3334"
         y="471.65335"
         style="fill:#6c6c6c;fill-opacity:1">Image 3</tspan></text>
    <rect
       style="fill:#1d2021;fill-opacity:1;stroke:#abc837;stroke-width:2.64567;stroke-linecap:round;stroke-linejoin:round;stroke-opacity:1"
       id="rect13809-7"
       width="320"
       height="100"
       x="260"
       y="880" />
    <text
       xml:space="preserve"
       style="font-size:26.6667px;line-height:1.25;font-family:sans-serif"
       x="366.34665"
       y="936.97333"
       id="text146930-8"><tspan
         sodipodi:role="line"
         id="tspan146928-6"
         x="366.34665"
         y="936.97333"
         style="fill:#e0e0e0;fill-opacity:1">Segment</tspan></text>
    <rect
       style="fill:#1d2021;fill-opacity:1;stroke:#abc837;stroke-width:2.64567;stroke-linecap:round;stroke-linejoin:round;stroke-opacity:1"
       id="rect13809-1-8"
       width="320"
       height="100"
       x="260"
       y="1160" />
    <text
       xml:space="preserve"
       style="font-size:26.6667px;line-height:1.25;font-family:sans-serif"
       x="366.34665"
       y="1216.9733"
       id="text146930-4-8"><tspan
         sodipodi:role="line"
         id="tspan146928-9-4"
         x="366.34665"
         y="1216.9733"
         style="fill:#e0e0e0;fill-opacity:1">Segment</tspan></text>
    <rect
       style="fill:#1d2021;fill-opacity:1;stroke:#abc837;stroke-width:2.64567;stroke-linecap:round;stroke-linejoin:round;stroke-opacity:1"
       id="rect13809-7-7"
       width="320"
       height="100"
       x="940"
       y="880" />
    <text
       xml:space="preserve"
       style="font-size:26.6667px;line-height:1.25;font-family:sans-serif"
       x="1008.3999"
       y="936.97333"
       id="text146930-8-2"><tspan
         sodipodi:role="line"
         id="tspan146928-6-7"
         x="1008.3999"
         y="936.97333"
         style="fill:#e0e0e0;fill-opacity:1">SegmenBuilder</tspan><tspan
         sodipodi:role="line"
         x="1008.3999"
         y="970.3067"
         style="fill:#e0e0e0;fill-opacity:1"
         id="tspan97374" /></text>
    <rect
       style="fill:#1d2021;fill-opacity:1;stroke:#abc837;stroke-width:2.64567;stroke-linecap:round;stroke-linejoin:round;stroke-opacity:1"
       id="rect13809-1-8-2"
       width="320"
       height="100"
       x="940"
       y="1160" />
    <text
       xml:space="preserve"
       style="font-size:26.6667px;line-height:1.25;font-family:sans-serif"
       x="1004.6932"
       y="1216.9734"
       id="text146930-4-8-2"><tspan
         sodipodi:role="line"
         id="tspan146928-9-4-6"
         x="1004.6932"
         y="1216.9734"
         style="fill:#e0e0e0;fill-opacity:1">SegmentBuilder</tspan></text>
    <text
       xml:space="preserve"
       style="font-size:26.6667px;line-height:1.25;font-family:sans-serif;fill:#6c6c6c;fill-opacity:1"
       x="-99.999992"
       y="900"
       id="text240413-3"><tspan
         sodipodi:role="line"
         id="tspan240411-1"
         x="-99.999992"
         y="900"
         style="fill:#6c6c6c;fill-opacity:1">Queue 0</tspan></text>
    <text
       xml:space="preserve"
       style="font-size:26.6667px;line-height:1.25;font-family:sans-serif;fill:#6c6c6c;fill-opacity:1"
       x="-98.973381"
       y="1181.0934"
       id="text242925-4"><tspan
         sodipodi:role="line"
         id="tspan242923-9"
         x="-98.973381"
         y="1181.0934"
         style="fill:#6c6c6c;fill-opacity:1">Queue 1</tspan></text>
    <path
       style="fill:none;stroke:#6c6c6c;stroke-width:1px;stroke-linecap:butt;stroke-linejoin:miter;stroke-opacity:1"
       d="m 260.00002,930 h -95"
       id="path245418-2"
       sodipodi:nodetypes="cc" />
    <path
       style="fill:none;stroke:#6c6c6c;stroke-width:1px;stroke-linecap:butt;stroke-linejoin:miter;stroke-opacity:1"
       d="m 260.00002,1210 h -95"
       id="path245420-0"
       sodipodi:nodetypes="cc" />
    <g
       id="g284753-6"
       transform="translate(38.700038,1060.5)">
      <text
         xml:space="preserve"
         id="text176401-8"
         style="font-size:26.6667px;line-height:1.25;font-family:sans-serif;white-space:pre;shape-inside:url(#rect176403-0-3);fill:#6c6c6c;fill-opacity:1;stroke:#6c6c6c;stroke-opacity:1"
         transform="translate(-778.91996,-75.353305)"><tspan
           x="820"
           y="229.70664"
           id="tspan141065"><tspan
             style="font-size:93.3333px;-inkscape-font-specification:'sans-serif, Normal'"
             id="tspan141063">...</tspan></tspan></text>
    </g>
    <g
       id="g284753-3-9"
       transform="translate(38.700038,779.85328)">
      <text
         xml:space="preserve"
         id="text176401-6-2"
         style="font-size:26.6667px;line-height:1.25;font-family:sans-serif;white-space:pre;shape-inside:url(#rect176403-0-0-0);fill:#6c6c6c;fill-opacity:1;stroke:#6c6c6c;stroke-opacity:1"
         transform="translate(-778.91996,-75.353305)"><tspan
           x="820"
           y="229.70664"
           id="tspan141069"><tspan
             style="font-size:93.3333px;-inkscape-font-specification:'sans-serif, Normal'"
             id="tspan141067">...</tspan></tspan></text>
    </g>
    <text
       xml:space="preserve"
       style="font-size:26.6667px;line-height:1.25;font-family:sans-serif"
       x="1318.72"
       y="906.97333"
       id="text22556-6"><tspan
         sodipodi:role="line"
         id="tspan22554-6"
         x="1318.72"
         y="906.97333"
         style="fill:#6c6c6c;fill-opacity:1">Currently owns</tspan></text>
    <text
       xml:space="preserve"
       style="font-size:26.6667px;line-height:1.25;font-family:sans-serif"
       x="1317.3334"
       y="941.65332"
       id="text57446-4"><tspan
         sodipodi:role="line"
         id="tspan57444-9"
         x="1317.3334"
         y="941.65332"
         style="fill:#6c6c6c;fill-opacity:1">Image 0</tspan></text>
    <text
       xml:space="preserve"
       style="font-size:26.6667px;line-height:1.25;font-family:sans-serif"
       x="1317.3334"
       y="971.6532"
       id="text57446-6-5"><tspan
         sodipodi:role="line"
         id="tspan57444-5-0"
         x="1317.3334"
         y="971.6532"
         style="fill:#6c6c6c;fill-opacity:1">Image 1</tspan></text>
    <text
       xml:space="preserve"
       style="font-size:26.6667px;line-height:1.25;font-family:sans-serif"
       x="1317.3334"
       y="1221.4"
       id="text57446-69-4"><tspan
         sodipodi:role="line"
         id="tspan57444-3-8"
         x="1317.3334"
         y="1221.4"
         style="fill:#6c6c6c;fill-opacity:1">Image 2</tspan></text>
    <text
       xml:space="preserve"
       style="font-size:26.6667px;line-height:1.25;font-family:sans-serif"
       x="1317.3334"
       y="999.02667"
       id="text57446-6-7-7"><tspan
         sodipodi:role="line"
         id="tspan57444-5-4-1"
         x="1317.3334"
         y="999.02667"
         style="fill:#6c6c6c;fill-opacity:1">Image 3</tspan></text>
    <text
       xml:space="preserve"
       style="font-size:26.6667px;line-height:1.25;font-family:sans-serif"
       x="547.52002"
       y="1146.8134"
       id="text57446-6-7-7-1"><tspan
         sodipodi:role="line"
         id="tspan57444-5-4-1-5"
         x="547.52002"
         y="1146.8134"
         style="fill:#6c6c6c;fill-opacity:1">Release Image 3</tspan></text>
    <g
       id="path100084">
      <path
         style="color:#000000;fill:#6c6c6c;-inkscape-stroke:none"
         d="m 959.5,980 v 59.5664 l -420,60 V 1160 h 1 v -59.5664 l 420,-60 V 980 Z"
         id="path114265" />
      <g
         id="g114255">
        <g
           id="path114257">
          <path
             style="color:#000000;fill:#6c6c6c;fill-rule:evenodd;stroke-width:0.8pt;-inkscape-stroke:none"
             d="m 960.00001,989.99999 4,4 -4,-14 -4,14 z"
             id="path114261" />
          <path
             style="color:#000000;fill:#6c6c6c;fill-rule:evenodd;-inkscape-stroke:none"
             d="m 960,978.05859 -5.07813,17.77344 5.07813,-5.07812 5.07812,5.07812 z m 0,3.88672 2.91992,10.22071 -2.91992,-2.91993 -0.37695,0.37696 -2.54297,2.54297 z"
             id="path114263" />
        </g>
      </g>
    </g>
    <path
       style="fill:none;stroke:#6c6c6c;stroke-width:1px;stroke-linecap:butt;stroke-linejoin:miter;stroke-opacity:1"
       d="m 580.00001,1210 h 360"
       id="path100485"
       sodipodi:nodetypes="cc" />
    <path
       style="fill:none;stroke:#6c6c6c;stroke-width:1px;stroke-linecap:butt;stroke-linejoin:miter;stroke-opacity:1"
       d="m 580.00001,929.5 h 360"
       id="path100485-1"
       sodipodi:nodetypes="cc" />
    <text
       xml:space="preserve"
       style="font-size:26.6667px;line-height:1.25;font-family:sans-serif"
       x="971.31995"
       y="1004.1866"
       id="text57446-6-7-7-9"><tspan
         sodipodi:role="line"
         id="tspan57444-5-4-1-4"
         x="971.31995"
         y="1004.1866"
         style="fill:#6c6c6c;fill-opacity:1">Acquire Image 3</tspan></text>
    <g
       id="path114651">
      <path
         style="color:#000000;fill:#6c6c6c;-inkscape-stroke:none"
         d="m 1528.3008,100 v 1160 h 3.3984 V 100 Z"
         id="path140811" />
      <g
         id="g140801">
        <g
           id="path140803">
          <path
             style="color:#000000;fill:#6c6c6c;fill-rule:evenodd;stroke-width:2.72pt;-inkscape-stroke:none"
             d="m 1530,1226 -13.6,-13.6 13.6,47.6 13.6,-47.6 z"
             id="path140807" />
          <path
             style="color:#000000;fill:#6c6c6c;fill-rule:evenodd;-inkscape-stroke:none"
             d="m 1512.7344,1206.1699 17.2656,60.4317 17.2656,-60.4317 -17.2656,17.2676 z m 7.332,12.461 9.9336,9.9336 1.2813,-1.2832 8.6523,-8.6504 -9.9336,34.7656 z"
             id="path140809" />
        </g>
      </g>
    </g>
  </g>
</svg>
