<?xml version="1.0" encoding="UTF-8" standalone="no"?>
<!-- Created with Inkscape (http://www.inkscape.org/) -->

<svg
   width="1860"
   height="382.64566"
   viewBox="0 0 1860 382.64566"
   version="1.1"
   id="svg5"
   inkscape:version="1.1.2 (0a00cf5339, 2022-02-04, custom)"
   sodipodi:docname="SecondRenderGraph.svg"
   xmlns:inkscape="http://www.inkscape.org/namespaces/inkscape"
   xmlns:sodipodi="http://sodipodi.sourceforge.net/DTD/sodipodi-0.dtd"
   xmlns="http://www.w3.org/2000/svg"
   xmlns:svg="http://www.w3.org/2000/svg">
  <sodipodi:namedview
     id="namedview7"
     pagecolor="#505050"
     bordercolor="#eeeeee"
     borderopacity="1"
     inkscape:pageshadow="0"
     inkscape:pageopacity="0"
     inkscape:pagecheckerboard="0"
     inkscape:document-units="px"
     showgrid="false"
     inkscape:snap-bbox="true"
     inkscape:snap-bbox-midpoints="true"
     inkscape:zoom="0.65520833"
     inkscape:cx="906.58188"
     inkscape:cy="210.62003"
     inkscape:window-width="2436"
     inkscape:window-height="1331"
     inkscape:window-x="26"
     inkscape:window-y="23"
     inkscape:window-maximized="0"
     inkscape:current-layer="layer1"
     fit-margin-top="0"
     fit-margin-left="0"
     fit-margin-right="0"
     fit-margin-bottom="0"
     inkscape:snap-bbox-edge-midpoints="true"
     inkscape:bbox-nodes="true"
     inkscape:bbox-paths="true">
    <inkscape:grid
       type="xygrid"
       id="grid13915"
       originx="100"
       originy="-98.677165" />
  </sodipodi:namedview>
  <defs
     id="defs2">
    <rect
       x="820"
       y="150"
       width="250"
       height="150"
       id="rect176403" />
    <rect
       x="270"
       y="315"
       width="364.30579"
       height="73.313301"
       id="rect46694" />
    <rect
       x="115"
       y="105"
       width="50"
       height="360"
       id="rect23874" />
    <rect
       x="115.96228"
       y="107.36866"
       width="47.970001"
       height="301.50613"
       id="rect9911" />
    <rect
       x="270"
       y="315"
       width="364.30579"
       height="73.313301"
       id="rect46694-7" />
  </defs>
  <g
     inkscape:label="Layer 1"
     inkscape:groupmode="layer"
     id="layer1"
     transform="translate(99.99999,-98.677165)">
    <rect
       style="fill:#1d2021;fill-opacity:1;stroke:#abc837;stroke-width:2.02655;stroke-linecap:round;stroke-linejoin:round;stroke-opacity:1"
       id="rect846-1"
       width="80.000008"
       height="380"
       x="1060"
       y="100" />
    <rect
       style="fill:#1d2021;fill-opacity:1;stroke:#abc837;stroke-width:2.64567;stroke-linecap:round;stroke-linejoin:round;stroke-opacity:1"
       id="rect13809"
       width="320"
       height="100"
       x="260"
       y="100" />
    <text
       xml:space="preserve"
       style="font-size:26.6667px;line-height:1.25;font-family:sans-serif"
       x="390.02664"
       y="159.41335"
       id="text146930"><tspan
         sodipodi:role="line"
         id="tspan146928"
         x="390.02664"
         y="159.41335"
         style="fill:#e0e0e0;fill-opacity:1">Pass</tspan></text>
    <rect
       style="fill:#1d2021;fill-opacity:1;stroke:#abc837;stroke-width:2.64567;stroke-linecap:round;stroke-linejoin:round;stroke-opacity:1"
       id="rect13809-8"
       width="320"
       height="100"
       x="1220"
       y="100" />
    <text
       xml:space="preserve"
       style="font-size:26.6667px;line-height:1.25;font-family:sans-serif"
       x="1350.0266"
       y="159.41333"
       id="text146930-9"><tspan
         sodipodi:role="line"
         id="tspan146928-2"
         x="1350.0266"
         y="159.41333"
         style="fill:#e0e0e0;fill-opacity:1">Pass</tspan></text>
    <rect
       style="fill:#1d2021;fill-opacity:1;stroke:#abc837;stroke-width:2.64567;stroke-linecap:round;stroke-linejoin:round;stroke-opacity:1"
       id="rect13809-1"
       width="320"
       height="100"
       x="260"
       y="380" />
    <text
       xml:space="preserve"
       style="font-size:26.6667px;line-height:1.25;font-family:sans-serif"
       x="390.02664"
       y="439.41333"
       id="text146930-4"><tspan
         sodipodi:role="line"
         id="tspan146928-9"
         x="390.02664"
         y="439.41333"
         style="fill:#e0e0e0;fill-opacity:1">Pass</tspan></text>
    <rect
       style="fill:#1d2021;fill-opacity:1;stroke:#abc837;stroke-width:2.64567;stroke-linecap:round;stroke-linejoin:round;stroke-opacity:1"
       id="rect13809-1-2"
       width="320"
       height="100"
       x="660"
       y="380" />
    <text
       xml:space="preserve"
       style="font-size:26.6667px;line-height:1.25;font-family:sans-serif"
       x="790.02667"
       y="439.41333"
       id="text146930-4-0"><tspan
         sodipodi:role="line"
         id="tspan146928-9-6"
         x="790.02667"
         y="439.41333"
         style="fill:#e0e0e0;fill-opacity:1">Pass</tspan></text>
    <text
       xml:space="preserve"
       style="font-size:26.6667px;line-height:1.25;font-family:sans-serif"
       x="260.19995"
       y="-1093.0266"
       id="text146930-5"
       transform="rotate(90)"><tspan
         sodipodi:role="line"
         id="tspan146928-5"
         x="260.19995"
         y="-1093.0266"
         style="fill:#e0e0e0;fill-opacity:1">Sync</tspan></text>
    <rect
       style="fill:#1d2021;fill-opacity:1;stroke:#abc837;stroke-width:2.02655;stroke-linecap:round;stroke-linejoin:round;stroke-opacity:1"
       id="rect846-1-6"
       width="80.000008"
       height="380"
       x="1620"
       y="100" />
    <text
       xml:space="preserve"
       style="font-size:26.6667px;line-height:1.25;font-family:sans-serif;fill:#6c6c6c;fill-opacity:1"
       x="-99.999985"
       y="120"
       id="text240413"><tspan
         sodipodi:role="line"
         id="tspan240411"
         x="-99.999985"
         y="120"
         style="fill:#6c6c6c;fill-opacity:1">Queue 0</tspan></text>
    <text
       xml:space="preserve"
       style="font-size:26.6667px;line-height:1.25;font-family:sans-serif;fill:#6c6c6c;fill-opacity:1"
       x="-98.973366"
       y="401.09335"
       id="text242925"><tspan
         sodipodi:role="line"
         id="tspan242923"
         x="-98.973366"
         y="401.09335"
         style="fill:#6c6c6c;fill-opacity:1">Queue 1</tspan></text>
    <path
       style="fill:none;stroke:#6c6c6c;stroke-width:1px;stroke-linecap:butt;stroke-linejoin:miter;stroke-opacity:1"
       d="m 260.00001,150 h -360"
       id="path245418" />
    <path
       style="fill:none;stroke:#6c6c6c;stroke-width:1px;stroke-linecap:butt;stroke-linejoin:miter;stroke-opacity:1"
       d="m 260.00001,430 h -360"
       id="path245420" />
    <path
       style="fill:none;stroke:#6c6c6c;stroke-width:1px;stroke-linecap:butt;stroke-linejoin:miter;stroke-opacity:1"
       d="M 580.00001,150 H 1060"
       id="path245422" />
    <path
       style="fill:none;stroke:#6c6c6c;stroke-width:1px;stroke-linecap:butt;stroke-linejoin:miter;stroke-opacity:1"
       d="m 1140,150 h 80"
       id="path245424" />
    <path
       style="fill:none;stroke:#6c6c6c;stroke-width:1px;stroke-linecap:butt;stroke-linejoin:miter;stroke-opacity:1"
       d="m 1540,150 h 80"
       id="path245426" />
    <path
       style="fill:none;stroke:#6c6c6c;stroke-width:1px;stroke-linecap:butt;stroke-linejoin:miter;stroke-opacity:1"
       d="m 580.00001,430 h 80"
       id="path245428" />
    <path
       style="fill:none;stroke:#6c6c6c;stroke-width:1px;stroke-linecap:butt;stroke-linejoin:miter;stroke-opacity:1"
       d="M 980.00001,430 H 1060"
       id="path260030" />
    <path
       style="fill:none;stroke:#6c6c6c;stroke-width:1px;stroke-linecap:butt;stroke-linejoin:miter;stroke-opacity:1"
       d="m 1140,430 h 480"
       id="path260032" />
    <path
       style="fill:none;stroke:#6c6c6c;stroke-width:1px;stroke-linecap:butt;stroke-linejoin:miter;stroke-opacity:1"
       d="m 1700,150 h 60"
       id="path260034" />
    <text
       xml:space="preserve"
       style="font-size:26.6667px;line-height:1.25;font-family:sans-serif"
       x="260.19995"
       y="-1653.0266"
       id="text146930-5-0"
       transform="rotate(90)"><tspan
         sodipodi:role="line"
         id="tspan146928-5-4"
         x="260.19995"
         y="-1653.0266"
         style="fill:#e0e0e0;fill-opacity:1">Sync</tspan></text>
    <path
       style="fill:none;stroke:#6c6c6c;stroke-width:1px;stroke-linecap:butt;stroke-linejoin:miter;stroke-opacity:1"
       d="m 1700,430 h 60"
       id="path260036" />
  </g>
</svg>
